<?xml version="1.0" encoding="UTF-8"?>
<svg width="16px" height="16px" viewBox="0 0 16 16" version="1.1" xmlns="http://www.w3.org/2000/svg" xmlns:xlink="http://www.w3.org/1999/xlink">
    <!-- Generator: Sketch 63.1 (92452) - https://sketch.com -->
    <title>icn/chevron-lg-down</title>
    <desc>Created with Sketch.</desc>
    <g id="icn/chevron-lg-down" stroke="none" stroke-width="1" fill="none" fill-rule="evenodd">
        <path d="M12.2929,5.292875 C12.6834,4.902375 13.3166,4.902375 13.7071,5.292875 C14.0976,5.683375 14.0976,6.316555 13.7071,6.707085 L8.70711,11.707085 C8.31658,12.097605 7.68342,12.097605 7.29289,11.707085 L2.29289,6.707085 C1.90237,6.316555 1.90237,5.683375 2.29289,5.292875 C2.68342,4.902375 3.31658,4.902375 3.70711,5.292875 L8,9.585765 L12.2929,5.292875 Z" id="icon" fill="#000000"></path>
    </g>
</svg>