{
  "_class": "group",
  "do_objectID": "FB53F577-830D-4934-855F-7BB3D2CA1F63",
  "exportOptions": {
    "_class": "exportOptions",
    "exportFormats": [
    ],
    "includedLayerIds": [
    ],
    "layerOptions": 0,
    "shouldTrim": false
  },
  "frame": {
    "_class": "rect",
    "constrainProportions": false,
    "height": 625,
    "width": 1448,
    "x": 11,
    "y": 0
  },
  "hasClickThrough": false,
  "isFlippedHorizontal": false,
  "isFlippedVertical": false,
  "isLocked": false,
  "isVisible": true,
  "layerListExpandedType": 2,
  "layers": [
    {
      "class": "shapeGroup",
      "id": "70AFEE3A-6E7C-4AE7-9799-D264A2A17A3C"
    },
    {
      "class": "shapeGroup",
      "id": "8E891939-F775-4F6C-9B1D-96764C2CB0EF"
    },
    {
      "class": "shapeGroup",
      "id": "ABACC5FA-75BB-4D7A-B6B8-E17C4337627D"
    }
  ],
  "name": "timeline-unit-weekendday-bg",
  "nameIsFixed": true,
  "resizingConstraint": 63,
  "resizingType": 0,
  "rotation": 0,
  "shouldBreakMaskChain": false,
  "style": {
    "_class": "style",
    "endDecorationType": 0,
    "miterLimit": 10,
    "startDecorationType": 0
  }
}